{
  "development": {
    "username": "ammad",
    "password": "ar128131",
    "database": "nxgen",
    "host": "internal.sawatechnologies.org",
    "dialect": "mysql"
  },
  "local": {
    "username": "root",
    "password": "root",
    "database": "nxgen",
    "host": "localhost",
    "dialect": "mysql"
  },
  "production": {
    "username": "backend",
    "password": "6fz6j5ZbqrJbb9Rt",
    "database": "nxgen_prod",
    "host": "nxgen-db-prod-do-user-9632309-0.b.db.ondigitalocean.com",
    "port": "25060",
    "dialect": "mysql"
  }
}